|------------|---------|   CCU   Reads and Writes List  --|------|----|---|------------|----|----|-----|
|---- Legend: W0/W1: Write to Block0/1; R0/R1: Read from Block0/1; SEM state Elevated from E to M -----|
|   Clock#          |   ThreadID   |      Address      |     Set#    |        Tag0#     |    State0    |     Hit0    |       Tag1#      |    State1    |     Hit1    |      LRU    |         Data       |       Wr     |       Rd     |      SEM    |
| CLK_CNT =    572  |       3      |      00000084     |       8     |       000000     |       S      |       1     |       000002     |       I      |       0     |       0     |       0000001E     |              |       R0     |       0     |
| CLK_CNT =    746  |       2      |      00000084     |       8     |       000000     |       S      |       1     |       000002     |       I      |       0     |       1     |       0000026C     |              |       R0     |       0     |
| CLK_CNT =    818  |       0      |      00000084     |       8     |       000000     |       S      |       1     |       000002     |       I      |       0     |       1     |       000003C6     |              |       R0     |       0     |
| CLK_CNT =    829  |       1      |      00000088     |       8     |       000000     |       M      |       1     |       000002     |       I      |       0     |       1     |       0000000A     |              |       R0     |       0     |
| CLK_CNT =    831  |       3      |      00000084     |       8     |       000000     |       M      |       1     |       000002     |       I      |       0     |       1     |       000003EA     |              |       R0     |       0     |
| CLK_CNT =    842  |       2      |      00000084     |       8     |       000000     |       O      |       1     |       000002     |       I      |       0     |       1     |       000003EA     |              |       R0     |       0     |
| CLK_CNT =    844  |       0      |      00000084     |       8     |       000000     |       M      |       1     |       000002     |       I      |       0     |       1     |       000003EA     |              |       R0     |       0     |
| CLK_CNT =    851  |       1      |      00000088     |       8     |       000000     |       M      |       1     |       000002     |       I      |       0     |       1     |       0000000B     |              |       R0     |       0     |
| CLK_CNT =    855  |       3      |      00000088     |       8     |       000000     |       M      |       1     |       000002     |       I      |       0     |       1     |       0000000B     |              |       R0     |       0     |
| CLK_CNT =    860  |       3      |      00000088     |       8     |       000000     |       M      |       1     |       000002     |       I      |       0     |       1     |       0000000C     |       W0     |              |       0     |
| CLK_CNT =    869  |       2      |      00000084     |       8     |       000000     |       O      |       1     |       000002     |       I      |       0     |       1     |       0000042A     |              |       R0     |       0     |
| CLK_CNT =    871  |       0      |      00000084     |       8     |       000000     |       O      |       1     |       000002     |       I      |       0     |       1     |       0000042A     |              |       R0     |       0     |
| CLK_CNT =    876  |       3      |      00000088     |       8     |       000000     |       O      |       1     |       000002     |       I      |       0     |       1     |       0000000C     |              |       R0     |       0     |
| CLK_CNT =    926  |       2      |      00000088     |       8     |       000000     |       M      |       1     |       000002     |       I      |       0     |       1     |       0000000D     |              |       R0     |       0     |
| CLK_CNT =    934  |       2      |      00000088     |       8     |       000000     |       M      |       1     |       000002     |       I      |       0     |       1     |       0000000E     |       W0     |              |       0     |
| CLK_CNT =    938  |       0      |      00000084     |       8     |       000000     |       M      |       1     |       000002     |       I      |       0     |       1     |       000004BF     |              |       R0     |       0     |
| CLK_CNT =    953  |       2      |      00000088     |       8     |       000000     |       O      |       1     |       000002     |       I      |       0     |       1     |       0000000E     |              |       R0     |       0     |
| CLK_CNT =    961  |       0      |      00000088     |       8     |       000000     |       M      |       1     |       000002     |       I      |       0     |       1     |       0000000E     |              |       R0     |       0     |
| CLK_CNT =    970  |       0      |      00000088     |       8     |       000000     |       M      |       1     |       000002     |       I      |       0     |       1     |       0000000F     |       W0     |              |       0     |
| CLK_CNT =    986  |       0      |      00000088     |       8     |       000000     |       O      |       1     |       000002     |       I      |       0     |       1     |       0000000F     |              |       R0     |       0     |
