----------------- Register Writes List ----------------------
|        Clock#     | Register Written  |   Data Written    |
-------------------------------------------------------------
|  CLK_CNT =     91  |         $1        |      00000002     |
-------------------------------------------------------------
|  CLK_CNT =    203  |         $2        |      00000002     |
-------------------------------------------------------------
|  CLK_CNT =    207  |         $3        |      00000004     |
-------------------------------------------------------------
|  CLK_CNT =    285  |         $5        |      00000000     |
-------------------------------------------------------------
|  CLK_CNT =    287  |         $5        |      00000004     |
-------------------------------------------------------------
|  CLK_CNT =    330  |         $5        |      00000000     |
-------------------------------------------------------------
|  CLK_CNT =    342  |         $5        |      00000001     |
-------------------------------------------------------------
|  CLK_CNT =    348  |         $5        |      00000005     |
-------------------------------------------------------------
|  CLK_CNT =    377  |         $5        |      00000001     |
-------------------------------------------------------------
|  CLK_CNT =    381  |         $6        |      00000001     |
-------------------------------------------------------------
|  CLK_CNT =    383  |         $6        |      00000002     |
-------------------------------------------------------------
|  CLK_CNT =    428  |         $6        |      00000001     |
-------------------------------------------------------------
|  CLK_CNT =    432  |         $7        |      00000010     |
-------------------------------------------------------------
|  CLK_CNT =    433  |         $6        |      00000002     |
