----------------- Register Writes List ----------------------
|        Clock#     | Register Written  |   Data Written    |
-------------------------------------------------------------
|  CLK_CNT =     94  |         $1        |      00000006     |
-------------------------------------------------------------
|  CLK_CNT =    206  |         $2        |      00000006     |
-------------------------------------------------------------
|  CLK_CNT =    210  |         $3        |      00000024     |
-------------------------------------------------------------
|  CLK_CNT =    288  |         $5        |      00000000     |
-------------------------------------------------------------
|  CLK_CNT =    290  |         $5        |      00000024     |
-------------------------------------------------------------
|  CLK_CNT =    332  |         $5        |      00000000     |
-------------------------------------------------------------
|  CLK_CNT =    386  |         $5        |      00000005     |
-------------------------------------------------------------
|  CLK_CNT =    388  |         $5        |      00000029     |
-------------------------------------------------------------
|  CLK_CNT =    439  |         $5        |      00000000     |
-------------------------------------------------------------
|  CLK_CNT =    531  |         $5        |      0000001E     |
-------------------------------------------------------------
|  CLK_CNT =    533  |         $5        |      00000042     |
-------------------------------------------------------------
|  CLK_CNT =    574  |         $5        |      00000000     |
-------------------------------------------------------------
|  CLK_CNT =    615  |         $5        |      000000C7     |
-------------------------------------------------------------
|  CLK_CNT =    617  |         $5        |      000000EB     |
-------------------------------------------------------------
|  CLK_CNT =    664  |         $5        |      00000000     |
-------------------------------------------------------------
|  CLK_CNT =    702  |         $5        |      0000026C     |
-------------------------------------------------------------
|  CLK_CNT =    704  |         $5        |      00000290     |
-------------------------------------------------------------
|  CLK_CNT =    730  |         $5        |      00000000     |
-------------------------------------------------------------
|  CLK_CNT =    763  |         $5        |      0000026C     |
-------------------------------------------------------------
|  CLK_CNT =    765  |         $5        |      00000290     |
-------------------------------------------------------------
|  CLK_CNT =    768  |         $5        |      00000000     |
-------------------------------------------------------------
|  CLK_CNT =    810  |         $5        |      000003C6     |
-------------------------------------------------------------
|  CLK_CNT =    812  |         $5        |      000003EA     |
-------------------------------------------------------------
|  CLK_CNT =    825  |         $5        |      00000001     |
-------------------------------------------------------------
|  CLK_CNT =    829  |         $6        |      0000000A     |
-------------------------------------------------------------
|  CLK_CNT =    832  |         $6        |      0000000B     |
-------------------------------------------------------------
|  CLK_CNT =    843  |         $6        |      00000001     |
-------------------------------------------------------------
|  CLK_CNT =    847  |         $7        |      00000010     |
-------------------------------------------------------------
|  CLK_CNT =    851  |         $6        |      0000000B     |
