----------------- Register Writes List ----------------------
|        Clock#     | Register Written  |   Data Written    |
-------------------------------------------------------------
|  CLK_CNT =     50  |         $1        |      00000005     |
-------------------------------------------------------------
|  CLK_CNT =    162  |         $2        |      00000005     |
-------------------------------------------------------------
|  CLK_CNT =    166  |         $3        |      00000019     |
-------------------------------------------------------------
|  CLK_CNT =    264  |         $5        |      00000000     |
-------------------------------------------------------------
|  CLK_CNT =    266  |         $5        |      00000019     |
-------------------------------------------------------------
|  CLK_CNT =    324  |         $5        |      00000000     |
-------------------------------------------------------------
|  CLK_CNT =    355  |         $5        |      00000001     |
-------------------------------------------------------------
|  CLK_CNT =    357  |         $5        |      0000001A     |
-------------------------------------------------------------
|  CLK_CNT =    430  |         $5        |      00000000     |
-------------------------------------------------------------
|  CLK_CNT =    507  |         $5        |      0000001E     |
-------------------------------------------------------------
|  CLK_CNT =    509  |         $5        |      00000037     |
-------------------------------------------------------------
|  CLK_CNT =    566  |         $5        |      00000000     |
-------------------------------------------------------------
|  CLK_CNT =    600  |         $5        |      000000C7     |
-------------------------------------------------------------
|  CLK_CNT =    602  |         $5        |      000000E0     |
-------------------------------------------------------------
|  CLK_CNT =    656  |         $5        |      00000000     |
-------------------------------------------------------------
|  CLK_CNT =    687  |         $5        |      000001A8     |
-------------------------------------------------------------
|  CLK_CNT =    689  |         $5        |      000001C1     |
-------------------------------------------------------------
|  CLK_CNT =    726  |         $5        |      00000000     |
-------------------------------------------------------------
|  CLK_CNT =    757  |         $5        |      0000026C     |
-------------------------------------------------------------
|  CLK_CNT =    759  |         $5        |      00000285     |
-------------------------------------------------------------
|  CLK_CNT =    774  |         $5        |      00000000     |
-------------------------------------------------------------
|  CLK_CNT =    797  |         $5        |      00000336     |
-------------------------------------------------------------
|  CLK_CNT =    799  |         $5        |      0000034F     |
-------------------------------------------------------------
|  CLK_CNT =    802  |         $5        |      00000000     |
-------------------------------------------------------------
|  CLK_CNT =    818  |         $5        |      000003C6     |
-------------------------------------------------------------
|  CLK_CNT =    824  |         $5        |      000003DF     |
-------------------------------------------------------------
|  CLK_CNT =    827  |         $5        |      00000000     |
-------------------------------------------------------------
|  CLK_CNT =    844  |         $5        |      000003EA     |
-------------------------------------------------------------
|  CLK_CNT =    850  |         $5        |      00000403     |
-------------------------------------------------------------
|  CLK_CNT =    854  |         $5        |      00000000     |
-------------------------------------------------------------
|  CLK_CNT =    871  |         $5        |      0000042A     |
-------------------------------------------------------------
|  CLK_CNT =    877  |         $5        |      00000443     |
-------------------------------------------------------------
|  CLK_CNT =    882  |         $5        |      00000000     |
-------------------------------------------------------------
|  CLK_CNT =    915  |         $5        |      0000048E     |
-------------------------------------------------------------
|  CLK_CNT =    917  |         $5        |      000004A7     |
-------------------------------------------------------------
|  CLK_CNT =    925  |         $5        |      00000000     |
-------------------------------------------------------------
|  CLK_CNT =    938  |         $5        |      000004BF     |
-------------------------------------------------------------
|  CLK_CNT =    945  |         $5        |      000004D8     |
-------------------------------------------------------------
|  CLK_CNT =    956  |         $5        |      00000001     |
-------------------------------------------------------------
|  CLK_CNT =    961  |         $6        |      0000000E     |
-------------------------------------------------------------
|  CLK_CNT =    967  |         $6        |      0000000F     |
-------------------------------------------------------------
|  CLK_CNT =    971  |         $6        |      00000001     |
-------------------------------------------------------------
|  CLK_CNT =    980  |         $7        |      00000010     |
-------------------------------------------------------------
|  CLK_CNT =    986  |         $6        |      0000000F     |
