----------------- Register Writes List ----------------------
|        Clock#     | Register Written  |   Data Written    |
-------------------------------------------------------------
|  CLK_CNT =    124  |         $1        |      00000000     |
-------------------------------------------------------------
|  CLK_CNT =    236  |         $2        |      00000000     |
-------------------------------------------------------------
|  CLK_CNT =    240  |         $3        |      00000000     |
-------------------------------------------------------------
|  CLK_CNT =    318  |         $5        |      00000000     |
-------------------------------------------------------------
|  CLK_CNT =    320  |         $5        |      00000000     |
-------------------------------------------------------------
|  CLK_CNT =    323  |         $5        |      00000000     |
-------------------------------------------------------------
|  CLK_CNT =    424  |         $5        |      00000005     |
-------------------------------------------------------------
|  CLK_CNT =    426  |         $5        |      00000005     |
-------------------------------------------------------------
|  CLK_CNT =    429  |         $5        |      00000000     |
-------------------------------------------------------------
|  CLK_CNT =    498  |         $5        |      0000001E     |
-------------------------------------------------------------
|  CLK_CNT =    500  |         $5        |      0000001E     |
-------------------------------------------------------------
|  CLK_CNT =    564  |         $5        |      00000000     |
-------------------------------------------------------------
|  CLK_CNT =    577  |         $5        |      000000C7     |
-------------------------------------------------------------
|  CLK_CNT =    583  |         $5        |      000000C7     |
-------------------------------------------------------------
|  CLK_CNT =    606  |         $5        |      00000001     |
-------------------------------------------------------------
|  CLK_CNT =    612  |         $6        |      00000005     |
-------------------------------------------------------------
|  CLK_CNT =    614  |         $6        |      00000006     |
-------------------------------------------------------------
|  CLK_CNT =    636  |         $6        |      00000001     |
-------------------------------------------------------------
|  CLK_CNT =    640  |         $7        |      00000010     |
-------------------------------------------------------------
|  CLK_CNT =    641  |         $6        |      00000006     |
